\contentsline {chapter}{\nonumberline Preface}{iii}{chapter*.2}%
\contentsline {part}{\numberline {I}Matter, Motion and Force}{1}{part.1}%
\contentsline {chapter}{\numberline {1}Gravity A Field of Physics}{8}{chapter.1}%
\contentsline {chapter}{\numberline {2}Projectiles}{60}{chapter.2}%
\providecommand \tocbasic@end@toc@file {}\tocbasic@end@toc@file 
